# 3ds Max Wavefront OBJ Exporter v0.97b - (c)2007 guruware
# File Created: 26.11.2018 18:45:52

mtllib VDNH.mtl

#
# object Plane001
#

v  -5.4849 0.0000 -2.8281
v  -5.4849 0.0000 3.1719
v  5.6151 0.0000 3.1719
v  5.6151 0.0000 -2.8281
# 4 vertices

vn 0.0000 1.0000 -0.0000
# 1 vertex normals

vt 0.0000 1.0000 0.0000
vt 0.0000 0.0000 0.0000
vt 1.0000 0.0000 0.0000
vt 1.0000 1.0000 0.0000
# 4 texture coords

g Plane001
usemtl 01___Default
s 1
f 1/1/1 2/2/1 3/3/1 4/4/1 
# 1 polygons

#
# object Line001
#

v  4.4132 0.0000 -1.9771
v  4.2367 0.0000 -2.4220
v  3.6736 0.0000 -2.2050
v  3.8270 0.0000 -1.7342
v  0.8788 0.0000 -1.8221
v  0.6903 0.0000 -1.5315
v  0.8788 0.0000 -1.5315
v  -0.6596 0.0000 0.1832
v  -0.4633 0.0000 0.3706
v  -0.4633 0.0000 0.0265
v  -0.6593 0.0000 0.0270
v  -0.4070 0.0000 0.0265
v  -0.4070 0.0000 0.5766
v  0.0446 0.0000 0.5766
v  0.0446 0.0000 0.0265
v  0.3566 0.0000 0.5766
v  0.3567 0.0000 0.0265
v  0.1009 0.0000 0.0265
v  0.1008 0.0000 0.5766
v  1.8664 0.0000 0.0270
v  2.0018 0.0000 0.3968
v  2.1164 0.0000 0.2900
v  0.3566 0.0000 -0.0532
v  0.3566 0.0000 -0.4475
v  0.1009 0.0000 -0.4475
v  0.1009 0.0000 -0.0532
v  -0.4634 0.0000 -0.0531
v  -0.4656 0.0000 -0.3648
v  -0.6594 0.0000 -0.2087
v  -0.6595 0.0000 -0.0526
v  -0.4071 0.0000 -0.3644
v  -0.4071 0.0000 -0.0532
v  0.0446 0.0000 -0.0532
v  0.0446 0.0000 -0.3644
v  0.3566 0.0000 -0.5141
v  0.3566 0.0000 -1.0467
v  0.1009 0.0000 -1.0467
v  0.1009 0.0000 -0.5141
v  0.3566 0.0000 -1.4666
v  0.3566 0.0000 -1.8222
v  0.1009 0.0000 -1.8222
v  0.1009 0.0000 -1.4666
v  0.3566 0.0000 -1.1353
v  0.3566 0.0000 -1.4117
v  0.1009 0.0000 -1.4117
v  0.1009 0.0000 -1.1353
v  0.0433 0.0000 -0.4407
v  0.0433 0.0000 -1.0467
v  -1.1848 0.0000 -1.0467
v  -1.1848 0.0000 -0.4407
v  -2.0232 0.0000 -1.0300
v  -1.3577 0.0000 -0.3082
v  -1.2495 0.0000 -0.4188
v  -1.2495 0.0000 -1.0467
v  -2.0091 0.0000 -1.0467
v  1.2172 0.0000 -0.0545
v  1.8736 0.0000 -0.0545
v  1.8736 0.0000 -0.1287
v  1.2172 0.0000 -0.1287
v  0.4100 0.0000 -0.0545
v  1.1001 0.0000 -0.0545
v  1.1001 0.0000 -0.1287
v  0.4100 0.0000 -0.1287
v  1.2172 0.0000 -0.1877
v  1.8736 0.0000 -0.1877
v  1.8736 0.0000 -0.3870
v  1.2172 0.0000 -0.3870
v  0.5305 0.0000 -0.1877
v  1.1001 0.0000 -0.1877
v  1.1001 0.0000 -0.3870
v  0.5305 0.0000 -0.3870
v  1.2172 0.0000 -0.4413
v  1.8736 0.0000 -0.4413
v  1.8736 0.0000 -0.5155
v  1.2172 0.0000 -0.5155
v  0.4100 0.0000 -0.4413
v  1.1001 0.0000 -0.4413
v  1.1001 0.0000 -0.5155
v  0.4100 0.0000 -0.5155
v  2.8343 0.0000 0.6024
v  2.5621 0.0000 0.3524
v  2.5231 0.0000 0.3967
v  2.6819 0.0000 0.7717
v  2.5947 0.0000 0.3147
v  3.0348 0.0000 0.2965
v  2.7744 0.0000 0.0842
v  2.7978 0.0000 0.0478
v  3.0361 0.0000 0.2431
v  3.0361 0.0000 0.0217
v  2.8147 0.0000 0.0217
v  1.9005 0.0000 -0.9478
v  2.1988 0.0000 -0.9864
v  2.4474 0.0000 -1.6125
v  3.0510 0.0000 -1.1288
v  3.0382 0.0000 -0.8249
v  3.7885 0.0000 -0.8223
v  3.7545 0.0000 -1.0069
v  3.6530 0.0000 -1.5174
v  3.1180 0.0000 -1.2831
v  4.6459 0.0000 -1.0497
v  4.3181 0.0000 -0.8452
v  4.9773 0.0000 -0.9476
v  4.9773 0.0000 -1.0497
v  3.9131 0.0000 -1.5250
v  4.6459 0.0000 -1.1860
v  4.9778 0.0000 -1.1864
v  5.3621 0.0000 -1.1956
v  4.1262 0.0000 -0.7115
v  3.8984 0.0000 -0.5939
v  4.8135 0.0000 -0.5939
v  4.8135 0.0000 -0.7115
v  3.8984 0.0000 -0.3197
v  4.8135 0.0000 -0.3197
v  4.8135 0.0000 -0.4965
v  3.8984 0.0000 -0.4965
v  3.8984 0.0000 -0.0500
v  4.8135 0.0000 -0.0500
v  4.8135 0.0000 -0.2267
v  3.8984 0.0000 -0.2267
v  3.3851 0.0000 0.5774
v  3.6372 0.0000 1.0028
v  4.6297 0.0000 0.5819
v  4.1273 0.0000 0.2883
v  4.8135 0.0000 0.1645
v  4.8135 0.0000 0.0438
v  3.8984 0.0000 0.0438
v  4.1169 0.0000 0.1647
v  3.0844 0.0000 -0.5939
v  3.7837 0.0000 -0.5939
v  3.7837 0.0000 -0.7707
v  3.0844 0.0000 -0.7707
v  3.5192 0.0000 -0.3197
v  3.7800 0.0000 -0.3197
v  3.7800 0.0000 -0.4965
v  3.5192 0.0000 -0.4965
v  3.5192 0.0000 -0.0500
v  3.7800 0.0000 -0.0500
v  3.7800 0.0000 -0.2267
v  3.5192 0.0000 -0.2267
v  3.7800 0.0000 0.0254
v  3.0825 0.0000 0.0254
v  3.0825 0.0000 0.3451
v  3.7800 0.0000 0.2655
v  3.4374 0.0000 -0.4965
v  2.8215 0.0000 -0.4965
v  2.8215 0.0000 -0.0500
v  3.4374 0.0000 -0.0500
v  3.2389 0.0000 -1.8116
v  2.9368 0.0000 -1.4132
v  3.0722 0.0000 -1.3168
v  3.3691 0.0000 -1.7101
v  2.2285 0.0000 -1.9835
v  2.5384 0.0000 -1.7283
v  2.8353 0.0000 -2.1267
v  2.5097 0.0000 -2.3689
v  4.3719 0.0000 -2.4803
v  4.5321 0.0000 -1.8708
v  4.3995 0.0000 -2.4766
v  4.2125 0.0000 -2.8263
v  4.5252 0.0000 -2.6917
v  4.7680 0.0000 -2.6919
v  5.1801 0.0000 -2.8271
v  3.0825 0.0000 -2.7540
v  3.2620 0.0000 -2.8274
v  2.9946 0.0000 -2.8242
v  3.5935 0.0000 -2.3458
v  3.4037 0.0000 -2.8264
v  3.1462 0.0000 -2.7032
v  5.2355 0.0000 -1.5063
v  5.2337 0.0000 -2.0218
v  5.1640 0.0000 -1.4711
v  5.2038 0.0000 -1.4869
v  5.0587 0.0000 -1.3975
v  5.3644 0.0000 -1.2654
v  5.0985 0.0000 -1.3975
v  0.4209 0.0000 1.4387
v  2.0069 0.0000 1.4387
v  2.0069 0.0000 0.6262
v  0.4209 0.0000 0.6262
v  2.4335 0.0000 -0.4809
v  2.2958 0.0000 -0.4809
v  2.2322 0.0000 -0.4041
v  2.4970 0.0000 -0.4041
v  2.0039 0.0000 -0.3368
v  2.0834 0.0000 -0.3368
v  2.0834 0.0000 -0.4634
v  2.0039 0.0000 -0.5012
v  2.1115 0.0000 -0.3368
v  2.1911 0.0000 -0.3368
v  2.1911 0.0000 -0.4137
v  2.1115 0.0000 -0.4349
v  2.3993 0.0000 -0.7199
v  2.3993 0.0000 -0.6404
v  2.4931 0.0000 -0.6404
v  2.5259 0.0000 -0.7199
v  2.3993 0.0000 -0.6064
v  2.3993 0.0000 -0.5269
v  2.4452 0.0000 -0.5269
v  2.4696 0.0000 -0.6064
v  2.3299 0.0000 0.1558
v  2.3299 0.0000 0.0763
v  2.2361 0.0000 0.0763
v  2.2034 0.0000 0.1558
v  2.3299 0.0000 0.0423
v  2.3299 0.0000 -0.0372
v  2.2841 0.0000 -0.0372
v  2.2596 0.0000 0.0423
v  2.7253 0.0000 -0.2273
v  2.6458 0.0000 -0.2273
v  2.6458 0.0000 -0.1007
v  2.7253 0.0000 -0.0629
v  2.6177 0.0000 -0.2273
v  2.5382 0.0000 -0.2273
v  2.5382 0.0000 -0.1504
v  2.6177 0.0000 -0.1293
v  3.0286 0.0000 0.7709
v  2.8831 0.0000 0.6365
v  2.7229 0.0000 0.8133
v  2.4890 0.0000 1.4375
v  0.0433 0.0000 -1.1234
v  0.0433 0.0000 -1.4084
v  -1.1848 0.0000 -1.4084
v  -1.1848 0.0000 -1.1234
v  0.0449 0.0000 -1.4666
v  0.0449 0.0000 -1.8222
v  -0.6027 0.0000 -1.8222
v  -0.6027 0.0000 -1.4666
v  -0.6636 0.0000 -1.4666
v  -0.6636 0.0000 -1.8222
v  -0.8204 0.0000 -1.8222
v  -0.8204 0.0000 -1.4666
v  -0.8850 0.0000 -1.4666
v  -0.8850 0.0000 -1.8222
v  -1.1847 0.0000 -1.8222
v  -1.1847 0.0000 -1.4666
v  -1.2532 0.0000 -1.1169
v  -1.2532 0.0000 -1.8222
v  -1.3735 0.0000 -1.8222
v  -1.3735 0.0000 -1.1169
v  -2.4435 0.0000 -1.4588
v  -2.0529 0.0000 -1.0655
v  -1.5787 0.0000 -1.5558
v  -2.2768 0.0000 -1.6437
v  -1.5612 0.0000 -1.5259
v  -1.9521 0.0000 -1.1182
v  -1.4480 0.0000 -1.1182
v  -1.4480 0.0000 -1.5259
v  0.4104 0.0000 -1.4111
v  0.4097 0.0000 -1.1356
v  0.7643 0.0000 -1.1360
v  0.5934 0.0000 -1.4103
v  1.3619 0.0000 -1.5315
v  1.5967 0.0000 -1.8187
v  0.9125 0.0000 -1.8187
v  0.9125 0.0000 -1.5315
v  1.7581 0.0000 -1.5389
v  1.7187 0.0000 -1.8705
v  1.5628 0.0000 -1.6875
v  0.7643 0.0000 -1.0438
v  1.8687 0.0000 -0.5948
v  0.9706 0.0000 -1.1037
v  -1.1895 0.0000 0.9894
v  -0.6702 0.0000 0.9894
v  -0.6702 0.0000 0.4866
v  -1.1895 0.0000 0.4866
v  -1.3944 0.0000 -0.2571
v  -1.7603 0.0000 -0.6230
v  -1.9022 0.0000 -0.4811
v  -1.5363 0.0000 -0.1152
v  -2.6572 0.0000 -1.2402
v  -1.9451 0.0000 -0.5281
v  -1.8031 0.0000 -0.6700
v  -2.5153 0.0000 -1.3822
v  -2.8942 0.0000 -0.2275
v  -2.8942 0.0000 0.0095
v  -1.8670 0.0000 0.0095
v  -1.8693 0.0000 -0.2275
v  -1.8109 0.0000 -0.2944
v  -3.5374 0.0000 -0.3413
v  -3.6390 0.0000 -0.3283
v  -3.6390 0.0000 -0.2970
v  -3.3712 0.0000 -0.0910
v  -2.9608 0.0000 -0.0910
v  -2.9608 0.0000 -0.2239
v  -3.3712 0.0000 -0.2239
v  -3.3712 0.0000 0.1123
v  -2.9608 0.0000 0.1123
v  -2.9608 0.0000 -0.0205
v  -3.3712 0.0000 -0.0205
v  -3.6386 0.0000 -0.0910
v  -3.4238 0.0000 -0.0910
v  -3.4238 0.0000 -0.2239
v  -3.6386 0.0000 -0.2239
v  -3.6386 0.0000 0.1123
v  -3.4238 0.0000 0.1123
v  -3.4238 0.0000 -0.0205
v  -3.6386 0.0000 -0.0205
v  -3.4275 0.0000 0.1796
v  -3.6342 0.0000 0.1797
v  -3.6349 0.0000 0.4009
v  -3.4254 0.0000 0.3124
v  -2.8408 0.0000 0.8791
v  -2.9584 0.0000 0.3120
v  -3.3704 0.0000 0.2808
v  -2.6518 0.0000 1.0968
v  -1.7943 0.0000 0.3120
v  -2.1055 0.0000 0.3120
v  -2.7939 0.0000 0.9363
v  -0.1758 0.0000 0.9238
v  -0.4118 0.0000 0.9887
v  -0.3259 0.0000 1.0708
v  -0.4498 0.0000 1.0507
v  -0.9524 0.0000 1.0507
v  -0.1966 0.0000 2.0268
v  0.1781 0.0000 1.6649
v  -0.9791 0.0000 1.0530
v  -0.8501 0.0000 1.3666
v  -0.2182 0.0000 2.0474
v  -1.2460 0.0000 0.4751
v  -1.3553 0.0000 0.3891
v  -1.2456 0.0000 1.2410
v  -1.2462 0.0000 1.8854
v  -1.2186 0.0000 2.8650
v  -0.8006 0.0000 2.5704
v  -1.8709 0.0000 2.0955
v  -1.7245 0.0000 1.9822
v  -1.8580 0.0000 1.8266
v  -1.9658 0.0000 1.9923
v  -1.8769 0.0000 1.8047
v  -2.2129 0.0000 1.4011
v  -2.3665 0.0000 1.5847
v  -2.0579 0.0000 1.9480
v  -2.1011 0.0000 2.3035
v  -1.9658 0.0000 2.1783
v  -2.0615 0.0000 2.0752
v  -2.2503 0.0000 2.1654
v  -2.0840 0.0000 1.9714
v  -2.3887 0.0000 1.6146
v  -2.5840 0.0000 1.8477
v  -2.2663 0.0000 2.1433
v  -2.8355 0.0000 1.6825
v  -2.5445 0.0000 2.2267
v  -2.2831 0.0000 2.4532
v  -2.1560 0.0000 2.3483
v  -2.9630 0.0000 1.4767
v  -2.6138 0.0000 1.8234
v  -2.4143 0.0000 1.5872
v  -2.6997 0.0000 1.2502
v  -2.5265 0.0000 1.3937
v  -2.3898 0.0000 1.5578
v  -2.2401 0.0000 1.3794
v  -2.3547 0.0000 1.2479
v  -2.6746 0.0000 1.2074
v  -2.5708 0.0000 1.3403
v  -2.3989 0.0000 1.1854
v  -2.5135 0.0000 1.0539
v  -2.4849 0.0000 1.0330
v  -2.2179 0.0000 1.3533
v  -1.8013 0.0000 0.8533
v  -2.0357 0.0000 0.6229
v  -1.9862 0.0000 0.5877
v  -1.7622 0.0000 0.8143
v  -1.7062 0.0000 0.7492
v  -1.9263 0.0000 0.5265
v  -1.5031 0.0000 0.2414
v  -1.6620 0.0000 0.6997
v  -1.3690 0.0000 0.3625
v  -3.7346 0.0000 1.3765
v  -3.2085 0.0000 1.1682
v  -3.3908 0.0000 0.8270
v  -3.7997 0.0000 0.9130
v  -3.6272 0.0000 -0.5025
v  -2.3389 0.0000 -1.6712
v  -2.3383 0.0000 -2.0408
v  -2.7140 0.0000 -2.2617
v  -0.3898 0.0000 0.6305
v  0.0446 0.0000 1.0612
v  0.0446 0.0000 0.6259
v  0.3566 0.0000 1.1250
v  0.3567 0.0000 0.6259
v  0.1009 0.0000 0.6259
v  0.1008 0.0000 1.1250
v  -0.1353 0.0000 0.9780
v  -0.2854 0.0000 1.1249
v  -0.2319 0.0000 1.1790
v  -0.0818 0.0000 1.0320
v  -0.0400 0.0000 1.0745
v  -0.1901 0.0000 1.2215
v  0.1814 0.0000 1.5942
v  0.3315 0.0000 1.4472
v  3.5799 0.0000 -1.7558
v  3.6481 0.0000 -1.7301
v  2.9704 0.0000 -2.7594
v  2.4659 0.0000 -2.5734
v  2.4898 0.0000 -2.6158
v  4.3550 0.0000 -2.6285
v  4.1143 0.0000 -2.8263
v  4.6080 0.0000 -2.6269
v  4.7993 0.0000 -2.6827
v  4.4374 0.0000 -2.6591
v  5.3644 0.0000 -2.2096
v  5.4049 0.0000 -2.2096
v  5.2963 0.0000 -2.8044
v  5.3644 0.0000 -2.1415
v  4.7844 0.0000 -2.6110
v  4.7531 0.0000 -2.6203
v  4.3074 0.0000 -2.4545
v  4.6701 0.0000 -1.5881
v  4.7224 0.0000 -1.5444
v  4.7790 0.0000 -1.5074
v  4.8378 0.0000 -1.4785
v  4.9203 0.0000 -1.4624
v  4.9941 0.0000 -1.4545
v  5.0592 0.0000 -1.4539
v  5.1158 0.0000 -1.4598
v  4.5878 0.0000 -1.6906
v  4.6245 0.0000 -1.6373
v  4.5505 0.0000 -1.8045
v  4.5624 0.0000 -1.7468
v  5.5117 0.0000 -2.2446
v  5.3644 0.0000 -2.0696
v  5.3036 0.0000 -2.0512
v  5.3036 0.0000 -1.5025
v  5.0293 0.0000 -1.3441
v  5.2764 0.0000 -1.4630
v  5.2456 0.0000 -1.4349
v  5.2118 0.0000 -1.4161
v  5.1756 0.0000 -1.4049
v  5.1376 0.0000 -1.3993
v  4.9773 0.0000 -0.8454
v  4.9940 0.0000 -0.8548
v  5.0371 0.0000 -0.9582
v  5.0350 0.0000 -0.9744
v  5.0340 0.0000 -0.9186
v  5.0370 0.0000 -0.9382
v  5.0308 0.0000 -0.9901
v  5.0244 0.0000 -1.0049
v  5.0194 0.0000 -0.8826
v  5.0281 0.0000 -0.8999
v  5.0080 0.0000 -0.8674
v  5.0053 0.0000 -1.0309
v  4.9925 0.0000 -1.0414
v  5.0160 0.0000 -1.0187
v  5.1303 0.0000 -1.0812
v  5.1486 0.0000 -1.0456
v  5.1508 0.0000 -0.8672
v  5.3174 0.0000 -0.8183
v  5.3621 0.0000 -0.8273
v  5.1648 0.0000 -0.9693
v  5.1624 0.0000 -0.9174
v  5.1599 0.0000 -1.0080
v  5.0709 0.0000 -1.1429
v  5.1046 0.0000 -1.1139
v  5.0289 0.0000 -1.1673
v  5.2821 0.0000 -0.8112
v  5.2527 0.0000 -0.8046
v  5.1313 0.0000 -0.8206
v  5.2264 0.0000 -0.7972
v  5.1052 0.0000 -0.7799
v  5.1699 0.0000 -0.7744
v  5.0737 0.0000 -0.7469
v  5.1335 0.0000 -0.7563
v  5.1998 0.0000 -0.7876
v  5.0380 0.0000 -0.7239
v  5.0879 0.0000 -0.7172
v  4.9995 0.0000 -0.7129
v  5.0489 0.0000 -0.6736
v  4.8827 0.0000 -0.7130
v  5.0167 0.0000 -0.6286
v  4.9731 0.0000 -0.5472
v  4.9914 0.0000 -0.5854
v  4.9620 0.0000 -0.5169
v  4.9583 0.0000 -0.4978
v  4.8827 0.0000 -0.4978
v  4.1104 0.0000 -0.8822
v  3.7155 0.0000 -1.5154
v  3.8179 0.0000 -0.9889
v  3.8984 0.0000 -0.7832
v  3.3977 0.0000 -1.6866
v  3.1035 0.0000 -1.2960
v  2.8209 0.0000 -0.5929
v  2.7840 0.0000 -1.3277
v  2.5207 0.0000 -0.9612
v  3.0382 0.0000 -0.5929
v  1.8994 0.0000 -0.6973
v  1.9815 0.0000 -0.6973
v  2.4805 0.0000 -0.9864
v  2.7530 0.0000 -1.3566
v  2.2361 0.0000 -0.6404
v  2.3299 0.0000 -0.6404
v  2.3299 0.0000 -0.7199
v  2.2034 0.0000 -0.7199
v  2.2841 0.0000 -0.5269
v  2.3299 0.0000 -0.5269
v  2.3299 0.0000 -0.6064
v  2.2596 0.0000 -0.6064
v  2.6458 0.0000 -0.4634
v  2.7253 0.0000 -0.5012
v  2.5382 0.0000 -0.4137
v  2.6177 0.0000 -0.4349
v  2.0834 0.0000 -0.1007
v  2.0039 0.0000 -0.0629
v  2.1911 0.0000 -0.1504
v  2.1115 0.0000 -0.1293
v  2.4931 0.0000 0.0763
v  2.5259 0.0000 0.1558
v  2.4452 0.0000 -0.0372
v  2.4696 0.0000 0.0423
v  2.6458 0.0000 -0.3368
v  2.7253 0.0000 -0.3368
v  2.5382 0.0000 -0.3368
v  2.6177 0.0000 -0.3368
v  2.0834 0.0000 -0.2273
v  2.0039 0.0000 -0.2273
v  2.1911 0.0000 -0.2273
v  2.1115 0.0000 -0.2273
v  2.3993 0.0000 0.0763
v  2.3993 0.0000 0.1558
v  2.3993 0.0000 -0.0372
v  2.3993 0.0000 0.0423
v  2.2322 0.0000 -0.1600
v  2.4970 0.0000 -0.1600
v  2.2958 0.0000 -0.0832
v  2.4335 0.0000 -0.0832
v  4.0827 0.0000 0.1695
v  3.9572 0.0000 0.2100
v  3.9873 0.0000 0.1978
v  4.0181 0.0000 0.1866
v  3.8984 0.0000 0.2352
v  3.9276 0.0000 0.2227
v  4.0499 0.0000 0.1769
v  5.1201 0.0000 0.4750
v  5.3621 0.0000 0.6479
v  5.1318 0.0000 0.4387
v  5.1154 0.0000 0.2677
v  5.3621 0.0000 0.2796
v  5.3175 0.0000 0.2706
v  5.1374 0.0000 0.3623
v  5.1299 0.0000 0.3127
v  5.1374 0.0000 0.4007
v  5.0753 0.0000 0.5377
v  5.1014 0.0000 0.5084
v  5.0411 0.0000 0.5620
v  4.9980 0.0000 0.5812
v  5.2821 0.0000 0.2635
v  5.2528 0.0000 0.2570
v  5.0972 0.0000 0.2377
v  5.2264 0.0000 0.2495
v  5.1699 0.0000 0.2267
v  5.0777 0.0000 0.2160
v  5.1335 0.0000 0.2086
v  5.0499 0.0000 0.1949
v  5.1998 0.0000 0.2399
v  5.0879 0.0000 0.1695
v  5.0231 0.0000 0.1815
v  5.0489 0.0000 0.1259
v  4.9834 0.0000 0.1671
v  5.0167 0.0000 0.0809
v  4.8827 0.0000 0.1653
v  4.9914 0.0000 0.0378
v  4.9731 0.0000 -0.0005
v  4.9620 0.0000 -0.0308
v  4.9583 0.0000 -0.0499
v  4.8827 0.0000 -0.0499
v  4.7194 0.0000 0.5101
v  4.2106 0.0000 0.2447
v  4.9926 0.0000 0.3775
v  5.0021 0.0000 0.5101
v  4.9831 0.0000 0.2448
v  5.0032 0.0000 0.2570
v  5.0532 0.0000 0.3913
v  5.0511 0.0000 0.4123
v  5.0498 0.0000 0.3399
v  5.0531 0.0000 0.3654
v  5.0471 0.0000 0.4327
v  5.0415 0.0000 0.4520
v  5.0334 0.0000 0.2932
v  5.0433 0.0000 0.3156
v  5.0200 0.0000 0.2734
v  5.0251 0.0000 0.4857
v  5.0145 0.0000 0.4993
v  5.0341 0.0000 0.4698
v  3.1586 0.0000 0.8484
v  3.3500 0.0000 1.0144
v  3.4211 0.0000 0.9493
v  2.8966 0.0000 0.5907
v  3.0497 0.0000 0.7392
v  3.2983 0.0000 0.4577
v  3.6072 0.0000 1.0074
v  3.4763 0.0000 0.9893
v  3.5083 0.0000 1.0006
v  3.5415 0.0000 1.0069
v  3.5749 0.0000 1.0090
v  3.4469 0.0000 0.9724
v  2.2027 0.0000 0.3967
v  2.1402 0.0000 0.3290
v  2.0413 0.0000 0.4162
v  2.0413 0.0000 0.7717
v  2.0434 0.0000 0.8133
v  2.0434 0.0000 1.4375
v  3.0348 0.0000 0.3433
v  2.8681 0.0000 0.5673
v  0.4157 0.0000 0.0265
v  0.4157 0.0000 0.5766
v  2.0018 0.0000 0.5765
v  -0.6058 0.0000 0.4991
v  -0.6058 0.0000 0.9887
v  -1.1631 0.0000 1.2477
v  -1.7733 0.0000 0.8878
v  -1.6530 0.0000 1.3833
v  -1.4966 0.0000 0.1463
v  -1.8807 0.0000 0.4862
v  -2.1913 0.0000 1.3865
v  -1.1876 0.0000 1.8707
v  -0.7527 0.0000 2.5316
v  -0.4855 0.0000 2.2895
v  -1.0835 0.0000 1.3638
v  -1.0861 0.0000 1.3895
v  -1.1411 0.0000 1.2589
v  -1.1218 0.0000 1.2740
v  -1.1218 0.0000 1.4538
v  -1.1412 0.0000 1.4691
v  -1.0938 0.0000 1.4135
v  -1.1059 0.0000 1.4351
v  -1.0938 0.0000 1.3142
v  -1.0861 0.0000 1.3381
v  -1.1633 0.0000 1.4803
v  -1.1876 0.0000 1.0530
v  -1.1874 0.0000 1.2410
v  -1.1058 0.0000 1.2927
v  -1.1877 0.0000 1.4869
v  -1.3468 0.0000 1.3894
v  -1.3495 0.0000 1.3638
v  -1.3113 0.0000 1.2739
v  -1.2920 0.0000 1.2588
v  -1.2921 0.0000 1.4687
v  -1.3113 0.0000 1.4535
v  -1.6965 0.0000 1.9647
v  -1.2460 0.0000 1.6001
v  -1.2701 0.0000 1.4799
v  -1.2700 0.0000 1.2476
v  -1.3272 0.0000 1.4349
v  -1.3392 0.0000 1.4133
v  -1.3468 0.0000 1.3380
v  -1.3392 0.0000 1.3141
v  -1.3272 0.0000 1.2926
v  -1.2459 0.0000 1.4866
v  -2.0348 0.0000 1.9776
v  -1.9998 0.0000 2.0181
v  -2.0256 0.0000 2.0393
v  -2.0624 0.0000 1.9979
v  -3.0829 0.0000 1.9482
v  -3.6564 0.0000 1.6734
v  -3.1460 0.0000 1.9156
v  -2.8882 0.0000 1.6421
v  -3.1486 0.0000 1.4078
v  -3.1550 0.0000 1.1416
v  -3.1403 0.0000 1.3036
v  -2.7094 0.0000 1.1471
v  -3.5141 0.0000 0.4547
v  -3.5445 0.0000 0.5093
v  -3.6668 0.0000 0.4572
v  -3.7293 0.0000 0.5432
v  -3.7971 0.0000 0.7150
v  -3.7632 0.0000 1.6578
v  -3.1929 0.0000 1.3244
v  -3.0206 0.0000 1.4233
v  -1.2462 0.0000 1.6718
v  -2.2296 0.0000 2.4967
v  -1.8134 0.0000 2.8650
v  -1.8646 0.0000 0.2513
v  -1.7152 0.0000 0.2513
v  -2.8942 0.0000 0.2513
v  -1.5071 0.0000 0.0339
v  -1.5105 0.0000 0.0178
v  -1.5244 0.0000 0.0778
v  -1.5150 0.0000 0.0639
v  -1.7477 0.0000 -0.2275
v  -1.5360 0.0000 0.0910
v  -1.5201 0.0000 0.0011
v  -1.5370 0.0000 -0.0163
v  -1.5089 0.0000 0.0493
v  -2.7041 0.0000 -1.1981
v  -1.9239 0.0000 -1.8241
v  -2.2768 0.0000 -2.0056
v  -1.4480 0.0000 -1.5538
v  -1.4480 0.0000 -1.8222
v  -3.6462 0.0000 -0.4030
v  -3.5681 0.0000 -0.3977
v  -2.2108 0.0000 0.3120
v  -2.9590 0.0000 0.1796
v  -3.3704 0.0000 0.1797
v  0.4104 0.0000 -1.8228
v  0.4104 0.0000 -1.4666
v  0.5934 0.0000 -1.4664
v  0.9706 0.0000 -1.1958
v  0.6903 0.0000 -1.4753
v  0.9907 0.0000 -1.2000
v  1.0153 0.0000 -1.2028
v  0.4095 0.0000 -1.0446
v  0.4101 0.0000 -0.5948
v  1.8687 0.0000 -0.9656
v  2.4106 0.0000 -1.6294
v  2.1311 0.0000 -1.8645
v  1.5473 0.0000 -1.1212
v  1.4769 0.0000 -1.1834
v  1.7334 0.0000 -1.5099
v  1.5381 0.0000 -1.6586
v  1.3821 0.0000 -1.4753
v  0.9907 0.0000 -1.1079
v  1.1757 0.0000 -1.1807
v  1.2128 0.0000 -1.1702
v  1.0967 0.0000 -1.2023
v  1.1199 0.0000 -1.1990
v  1.3217 0.0000 -1.1514
v  1.3575 0.0000 -1.1476
v  1.2494 0.0000 -1.1622
v  1.2857 0.0000 -1.1560
v  1.1381 0.0000 -1.1940
v  1.4251 0.0000 -1.1480
v  1.4512 0.0000 -1.1619
v  1.0702 0.0000 -1.2040
v  1.3932 0.0000 -1.1444
v  1.0424 0.0000 -1.2042
v  1.2494 0.0000 -1.0701
v  1.2128 0.0000 -1.0781
v  1.1381 0.0000 -1.1019
v  1.1199 0.0000 -1.1069
v  1.4136 0.0000 -1.0522
v  1.3932 0.0000 -1.0523
v  1.0702 0.0000 -1.1119
v  1.0424 0.0000 -1.1121
v  1.3217 0.0000 -1.0592
v  1.2857 0.0000 -1.0639
v  1.1757 0.0000 -1.0886
v  1.5227 0.0000 -1.0953
v  1.0153 0.0000 -1.1107
v  1.4553 0.0000 -1.0571
v  1.0967 0.0000 -1.1102
v  1.4993 0.0000 -1.0768
v  1.4769 0.0000 -1.0645
v  1.3575 0.0000 -1.0555
v  1.7404 0.0000 -1.8681
v  1.9426 0.0000 -1.9119
v  1.9018 0.0000 -1.9001
v  1.8285 0.0000 -1.8756
v  1.8079 0.0000 -1.8708
v  2.0297 0.0000 -1.9224
v  2.0061 0.0000 -1.9221
v  1.7905 0.0000 -1.8678
v  1.9772 0.0000 -1.9189
v  1.8542 0.0000 -1.8825
v  2.0634 0.0000 -1.9183
v  2.0486 0.0000 -1.9208
v  1.7585 0.0000 -1.8667
v  1.7746 0.0000 -1.8665
# 756 vertices

vn 0.0000 1.0000 -0.0000
vn -0.0000 1.0000 -0.0000
vn 0.0000 1.0000 0.0000
vn -0.0000 1.0000 0.0000
vn 0.0000 -1.0000 -0.0000
vn -0.0000 -1.0000 -0.0000
# 6 vertex normals

g Line001
usemtl wire_008110135
s 1
f 5//2 6//2 7//2 8//2 
f 9//2 10//2 11//2 
f 12//2 13//2 14//2 15//2 
f 16//2 17//2 18//2 19//2 
f 20//2 21//2 22//2 23//2 
f 24//2 25//2 26//2 
f 27//2 28//2 29//2 30//2 
f 31//2 32//2 33//2 34//2 
f 35//2 36//2 37//2 38//2 
f 39//2 40//2 41//2 42//2 
f 43//2 44//2 45//2 46//2 
f 47//2 48//2 49//2 50//2 
f 51//2 52//2 53//2 54//2 
f 55//2 56//2 57//2 58//2 59//2 
f 60//2 61//2 62//2 63//2 
f 64//2 65//2 66//2 67//2 
f 68//2 69//2 70//2 71//2 
f 72//2 73//2 74//2 75//2 
f 76//2 77//2 78//2 79//2 
f 80//2 81//2 82//2 83//2 
f 84//2 85//2 86//2 87//2 
f 88//2 89//2 90//2 
f 91//2 92//2 93//2 94//2 
f 95//2 96//2 97//2 
f 98//2 99//2 100//2 
f 101//2 102//2 103//2 
f 104//2 105//2 106//2 107//2 
f 108//2 109//2 110//2 111//2 
f 112//2 113//2 114//2 115//2 
f 116//2 117//2 118//2 119//2 
f 120//2 121//2 122//2 123//2 
f 124//2 125//3 126//3 127//2 
f 128//2 129//2 130//2 131//2 
f 132//2 133//2 134//2 135//2 
f 136//2 137//2 138//2 139//2 
f 140//2 141//2 142//2 143//2 
f 144//2 145//2 146//2 147//2 
f 148//2 149//2 150//2 151//2 
f 152//2 153//2 154//2 155//2 
f 156//2 157//2 158//2 159//2 
f 160//2 161//2 162//2 
f 163//2 164//2 165//2 166//2 
f 167//2 168//2 169//2 
f 170//2 171//2 172//2 
f 173//2 174//2 175//2 176//2 
f 177//2 178//2 179//2 
f 180//2 181//2 182//2 183//2 
f 184//2 185//2 186//2 187//2 
f 188//2 189//2 190//2 191//2 
f 192//2 193//2 194//2 195//2 
f 196//2 197//2 198//2 199//2 
f 200//2 201//2 202//2 203//2 
f 204//2 205//2 206//2 207//2 
f 208//2 209//2 210//2 211//2 
f 212//2 213//2 214//2 215//2 
f 216//2 217//2 218//2 219//2 
f 220//2 221//2 222//2 223//2 
f 224//2 225//2 226//2 227//2 
f 228//2 229//2 230//2 231//2 
f 232//2 233//2 234//2 235//2 
f 236//2 237//2 238//2 239//2 
f 240//2 241//2 242//2 243//2 
f 244//2 245//2 246//2 247//2 
f 248//2 249//2 250//2 251//2 
f 252//2 253//2 254//2 255//2 
f 256//2 257//2 258//2 259//2 
f 260//2 261//2 262//2 
f 263//2 264//2 265//2 
f 266//2 267//2 268//2 269//2 
f 270//2 271//2 272//2 273//2 
f 274//2 275//2 276//2 277//2 
f 278//2 279//2 280//2 281//2 
f 282//2 283//2 284//2 285//2 
f 286//2 287//2 288//2 289//2 
f 290//2 291//2 292//2 293//2 
f 294//2 295//2 296//2 297//2 
f 298//2 299//2 300//2 301//2 
f 302//2 303//2 304//2 305//2 
f 306//2 307//2 308//2 
f 309//2 310//2 311//2 312//2 
f 313//2 314//2 315//2 
f 316//2 317//2 318//2 319//2 
f 320//2 321//2 322//2 
f 323//2 324//2 325//2 
f 326//2 327//2 328//2 
f 329//2 330//2 331//2 332//2 
f 333//2 334//2 335//2 336//2 
f 337//2 338//2 339//2 340//2 
f 341//2 342//2 343//2 344//2 
f 345//2 346//2 347//2 348//2 
f 349//2 350//2 351//2 352//2 
f 353//2 354//2 355//2 356//2 
f 357//2 358//2 359//2 360//2 
f 361//2 362//2 363//2 364//2 
f 365//2 366//2 367//2 368//2 
f 369//2 370//2 371//2 
f 372//2 373//2 374//2 375//2 
f 376//2 377//2 378//2 379//2 
f 380//2 381//2 382//2 
f 383//2 384//2 385//2 386//2 
f 387//2 388//2 389//2 390//2 
f 391//2 392//2 393//2 394//2 
f 7//2 395//2 396//2 8//2 
f 7//2 397//2 398//2 395//2 
f 397//2 399//2 398//2 
f 170//2 400//2 401//2 171//2 
f 164//2 402//2 165//2 
f 165//2 403//2 166//2 
f 163//2 404//2 164//2 
f 405//2 406//2 407//2 
f 408//2 405//2 407//2 409//2 
f 161//2 409//2 410//2 
f 160//2 411//2 161//2 
f 161//2 410//2 162//2 
f 161//2 408//2 409//2 
f 174//2 412//2 413//2 414//2 
f 174//2 414//2 415//2 416//2 
f 174//2 416//2 417//2 418//2 
f 174//2 418//2 419//2 175//2 
f 174//2 420//2 421//2 412//2 
f 174//2 422//2 423//2 420//2 
f 406//2 424//2 407//2 
f 178//2 425//2 426//2 427//2 
f 177//2 428//2 178//2 
f 178//2 429//2 430//2 
f 178//2 431//2 432//2 
f 430//2 431//2 178//2 
f 178//2 432//2 433//2 
f 178//2 427//2 429//2 
f 178//2 433//2 179//2 
f 434//2 435//2 106//2 
f 105//2 434//2 106//2 
f 436//2 437//2 106//2 
f 438//2 439//2 106//2 
f 439//2 436//2 106//2 
f 440//2 441//2 106//2 
f 442//2 443//2 106//2 
f 435//2 444//2 106//2 
f 437//2 440//2 106//2 
f 445//2 446//2 106//2 
f 447//2 445//2 106//2 
f 443//2 438//2 106//2 
f 444//2 442//2 106//2 
f 446//2 107//2 106//2 
f 441//2 447//2 106//2 
f 448//2 449//2 111//2 
f 450//2 451//2 452//2 
f 453//2 454//2 452//2 
f 454//2 450//2 452//2 
f 455//2 453//2 111//2 
f 456//2 457//2 111//2 
f 449//2 455//2 111//2 
f 458//2 456//2 111//2 
f 453//2 452//2 111//2 
f 457//2 448//2 111//2 
f 110//2 458//2 111//2 
f 450//2 459//2 451//2 
f 450//2 460//2 459//2 
f 450//2 461//2 460//2 
f 461//2 462//2 460//2 
f 461//2 463//2 464//2 
f 463//2 465//2 466//2 
f 461//2 464//2 467//2 
f 461//2 467//2 462//2 
f 465//2 468//2 469//2 
f 468//2 470//2 471//2 
f 470//2 472//2 473//2 
f 472//2 474//2 475//2 
f 472//2 476//2 474//2 
f 472//2 477//2 476//2 
f 472//2 478//2 477//2 
f 472//2 475//2 473//2 
f 470//2 473//2 471//2 
f 468//2 471//2 469//2 
f 465//2 469//2 466//2 
f 463//2 466//2 464//2 
f 108//2 479//2 109//2 
f 108//2 480//2 481//2 479//2 
f 112//2 482//2 113//2 
f 102//2 483//2 484//2 103//2 
f 98//2 485//2 99//2 
f 98//2 486//2 487//2 485//2 
f 485//2 488//2 99//2 
f 95//2 489//2 490//2 96//2 
f 96//2 491//2 492//2 97//2 
f 493//2 494//2 495//2 496//2 
f 497//2 498//2 499//2 500//2 
f 190//2 493//2 496//2 191//2 
f 194//2 497//2 500//2 195//2 
f 198//2 501//2 502//2 199//2 
f 202//2 503//2 504//2 203//2 
f 206//2 505//2 506//2 207//2 
f 210//2 507//2 508//2 211//2 
f 214//2 509//2 510//2 215//2 
f 218//2 511//2 512//2 219//2 
f 501//2 513//2 514//2 502//2 
f 503//2 515//2 516//2 504//2 
f 505//2 517//2 518//2 506//2 
f 507//2 519//2 520//2 508//2 
f 509//2 521//2 522//2 510//2 
f 511//2 523//2 524//2 512//2 
f 186//2 525//2 526//2 187//2 
f 525//2 527//2 528//2 526//2 
f 130//2 529//2 131//2 
f 130//2 530//2 531//2 
f 130//2 531//2 532//2 
f 130//2 533//2 534//2 
f 130//2 535//2 529//2 
f 130//2 534//2 530//2 
f 130//2 532//2 535//2 
f 536//4 537//4 538//4 
f 539//2 540//4 541//2 
f 542//4 540//4 543//2 
f 543//2 540//4 539//2 
f 544//2 537//4 542//4 
f 545//4 537//4 546//4 
f 538//4 537//4 544//2 
f 547//5 537//4 545//4 
f 542//4 537//4 540//4 
f 546//4 537//4 536//4 
f 548//5 537//4 547//5 
f 539//2 541//2 549//2 
f 539//2 549//2 550//2 
f 539//2 550//2 551//2 
f 551//2 550//2 552//2 
f 551//2 553//2 554//2 
f 554//2 555//2 556//3 
f 551//2 557//2 553//2 
f 551//2 552//2 557//2 
f 556//3 558//3 559//3 
f 559//3 560//3 561//2 
f 561//2 562//3 563//2 
f 563//2 564//3 565//2 
f 563//2 565//2 566//3 
f 563//2 566//3 567//3 
f 563//2 567//3 568//2 
f 563//2 562//3 564//3 
f 561//2 560//3 562//3 
f 559//3 558//3 560//3 
f 556//3 555//2 558//3 
f 554//2 553//2 555//2 
f 569//6 570//6 571//6 572//6 
f 573//6 574//6 571//6 
f 570//6 573//6 571//6 
f 575//6 576//6 571//6 
f 577//6 578//6 571//6 
f 578//6 575//6 571//6 
f 579//6 580//7 571//6 
f 581//6 582//6 571//6 
f 574//6 583//6 571//6 
f 576//6 579//6 571//6 
f 584//7 585//6 571//6 
f 586//6 584//7 571//6 
f 582//6 577//6 571//6 
f 583//6 581//6 571//6 
f 585//6 572//6 571//6 
f 580//7 586//6 571//6 
f 124//2 587//2 588//2 589//2 
f 146//2 590//2 591//2 592//2 
f 146//2 592//2 147//2 
f 124//2 593//2 125//3 
f 125//3 537//4 548//5 126//3 
f 124//2 594//2 595//2 
f 124//2 596//2 597//2 
f 124//2 589//2 598//2 
f 124//2 597//2 593//2 
f 124//2 598//2 594//2 
f 124//2 595//2 596//2 
f 599//2 600//2 601//2 602//2 
f 86//2 599//2 602//2 87//2 
f 222//2 603//2 604//2 223//2 
f 88//2 605//2 89//2 
f 88//2 606//2 605//2 
f 24//2 607//2 608//2 609//2 
f 609//2 25//2 24//2 
f 313//2 610//2 611//2 314//2 
f 320//2 612//2 321//2 
f 324//2 613//2 614//2 
f 369//2 615//2 616//2 370//2 
f 613//2 617//2 614//2 
f 321//2 618//2 619//2 620//2 
f 621//2 622//2 321//2 
f 623//2 624//2 321//2 
f 625//2 626//2 321//2 
f 612//2 623//2 321//2 
f 627//2 628//2 321//2 
f 629//2 630//2 321//2 
f 626//2 631//2 321//2 
f 320//2 632//2 633//2 612//2 
f 622//2 627//2 321//2 
f 634//2 629//2 321//2 
f 628//2 625//2 321//2 
f 630//2 621//2 321//2 
f 631//2 618//2 321//2 
f 624//2 634//2 321//2 
f 631//2 635//2 618//2 
f 321//2 620//2 322//2 
f 614//2 636//2 637//2 
f 614//2 638//2 639//2 
f 614//2 640//2 641//2 
f 614//2 642//2 643//2 
f 614//2 643//2 644//2 
f 324//2 645//2 325//2 
f 324//2 614//2 645//2 
f 614//2 646//2 647//2 
f 639//2 645//2 614//2 
f 614//2 648//2 649//2 
f 614//2 644//2 640//2 
f 614//2 647//2 636//2 
f 614//2 649//2 650//2 
f 614//2 641//2 646//2 
f 614//2 650//2 638//2 
f 614//2 637//2 648//2 
f 643//2 651//2 644//2 
f 617//2 642//2 614//2 
f 331//2 652//2 653//2 332//2 
f 339//2 654//2 655//2 340//2 
f 345//2 656//2 346//2 
f 657//2 658//2 659//2 660//2 
f 661//2 662//2 663//2 
f 664//2 661//2 663//2 305//2 
f 304//2 664//2 305//2 
f 374//2 665//2 666//2 667//2 
f 374//2 667//2 668//2 375//2 
f 372//2 669//2 670//2 373//2 
f 669//2 657//2 660//2 670//2 
f 662//2 671//2 663//2 
f 326//2 672//2 673//2 674//2 
f 326//2 674//2 327//2 
f 675//2 676//2 280//2 
f 279//2 677//2 675//2 280//2 
f 678//2 679//2 280//2 
f 680//2 681//2 280//2 
f 682//2 281//2 280//2 
f 676//2 683//2 280//2 
f 684//2 685//2 280//2 
f 686//2 678//2 280//2 
f 679//2 684//2 280//2 
f 681//2 686//2 280//2 
f 683//2 680//2 280//2 
f 685//2 682//2 280//2 
f 282//2 687//2 283//2 
f 246//2 688//2 689//2 247//2 
f 246//2 690//2 691//2 688//2 
f 376//2 692//2 693//2 377//2 
f 306//2 694//2 307//2 
f 307//2 695//2 696//2 308//2 
f 9//2 697//2 698//2 699//2 
f 9//2 699//2 10//2 
f 254//2 700//2 701//2 
f 254//2 701//2 255//2 
f 702//2 703//2 701//2 
f 263//2 704//2 705//2 264//2 
f 706//2 707//2 708//2 709//2 
f 710//2 711//2 712//2 713//2 
f 264//2 714//2 265//2 
f 715//2 716//2 713//2 
f 717//2 718//2 713//2 
f 719//2 720//2 713//2 
f 721//2 722//2 713//2 
f 723//2 715//2 713//2 
f 724//2 725//2 713//2 
f 726//2 717//2 713//2 
f 716//2 721//2 713//2 
f 718//2 723//2 713//2 
f 727//2 724//2 713//2 
f 722//2 719//2 713//2 
f 725//2 710//2 713//2 
f 728//2 726//2 713//2 
f 720//2 727//2 713//2 
f 728//2 713//2 701//2 
f 701//2 700//2 702//2 
f 703//2 728//2 701//2 
f 264//2 729//2 730//2 
f 264//2 731//2 732//2 
f 264//2 733//2 734//2 
f 264//2 735//2 736//2 
f 264//2 737//2 738//2 
f 264//2 738//2 729//2 
f 264//2 730//2 739//2 
f 264//2 739//2 731//2 
f 264//2 706//2 709//2 740//2 
f 264//2 736//2 741//2 
f 264//2 741//2 714//2 
f 264//2 742//2 733//2 
f 264//2 732//2 743//2 
f 264//2 743//2 735//2 
f 744//2 745//2 264//2 
f 740//2 744//2 264//2 
f 746//2 737//2 264//2 
f 734//2 746//2 264//2 
f 264//2 745//2 742//2 
f 260//2 747//2 261//2 
f 260//2 748//2 749//2 
f 260//2 750//2 751//2 
f 260//2 752//2 753//2 
f 260//2 751//2 754//2 
f 260//2 753//2 755//2 
f 260//2 755//2 748//2 
f 260//2 749//2 756//2 
f 260//2 756//2 750//2 
f 260//2 757//2 758//2 
f 260//2 758//2 752//2 
f 260//2 759//2 747//2 
f 760//2 759//2 260//2 
f 754//2 760//2 260//2 
# 148 polygons - 258 triangles

